Аналіз тексту
…
library(tidyverse)
library(tidytext)
library(wordcloud)
library(textdata)
library(reshape2)

# devtools::install_github("ropensci/gutenbergr")
library(gutenbergr)

Завантаження даних

gutenberg_metadata %>% 
  count(author, sort = TRUE)

# A tibble: 21,227 × 2
   author                                  n
   <chr>                               <int>
 1 <NA>                                 4892
 2 Various                              3798
 3 Anonymous                             867
 4 Shakespeare, William                  326
 5 Twain, Mark                           235
 6 Lytton, Edward Bulwer Lytton, Baron   223
 7 Ebers, Georg                          175
 8 Dickens, Charles                      172
 9 Verne, Jules                          169
10 Balzac, Honoré de                     151
# … with 21,217 more rows
Dracula book

dracula <- read_delim("https://www.gutenberg.org/files/345/345-0.txt", delim = "\n", col_names = "text")

Rows: 10491 Columns: 1
── Column specification ────────────────────────────────────────────────────────
Delimiter: "\001"
chr (1): text

ℹ Use `spec()` to retrieve the full column specification for this data.
ℹ Specify the column types or set `show_col_types = FALSE` to quiet this message.

dracula

# A tibble: 10,491 × 1
   text                                                                    
   <chr>                                                                   
 1 The Project Gutenberg eBook of Dracula, by Bram Stoker                  
 2 This eBook is for the use of anyone anywhere in the United States and   
 3 most other parts of the world at no cost and with almost no restrictions
 4 whatsoever. You may copy it, give it away or re-use it under the terms  
 5 of the Project Gutenberg License included with this eBook or online at  
 6 www.gutenberg.org. If you are not located in the United States, you     
 7 will have to check the laws of the country where you are located before 
 8 using this eBook.                                                       
 9 Title: Dracula                                                          
10 Author: Bram Stoker                                                     
# … with 10,481 more rows

Охайні дані

Приводимо дані до зручного вигляду: видаляємо “стоп-слова” та записуємо кожне слово в окремий рядок.

tidy_dracula <- dracula %>% 
  unnest_tokens(word, text) %>% 
  anti_join(stop_words)

Joining, by = "word"

tidy_dracula

# A tibble: 49,992 × 1
   word     
   <chr>    
 1 project  
 2 gutenberg
 3 ebook    
 4 dracula  
 5 bram     
 6 stoker   
 7 ebook    
 8 united   
 9 world    
10 cost     
# … with 49,982 more rows

Аналіз тексту

Порахуємо кількість унікальних слів

tidy_dracula %>% 
  count(word, sort = TRUE)

# A tibble: 9,300 × 2
   word        n
   <chr>   <int>
 1 time      390
 2 van       323
 3 night     310
 4 helsing   301
 5 dear      224
 6 lucy      223
 7 day       220
 8 hand      210
 9 mina      210
10 door      200
# … with 9,290 more rows
…
tidy_dracula %>% 
  inner_join(bing) %>% 
  count(word, sentiment, sort = TRUE)

Joining, by = "word"

# A tibble: 1,634 × 3
   word     sentiment     n
   <chr>    <chr>     <int>
 1 poor     negative    193
 2 fear     negative    137
 3 dead     negative    109
 4 terrible negative     99
 5 death    negative     94
 6 strange  negative     90
 7 love     positive     84
 8 dark     negative     77
 9 ready    positive     71
10 sweet    positive     66
# … with 1,624 more rows
…
Візуалізація за словником “BING”

sentiment_dracula_bing <- tidy_dracula %>% 
  inner_join(bing) %>% 
  count(word, sentiment, sort = TRUE) %>% 
  ungroup()

Joining, by = "word"

sentiment_dracula_bing

# A tibble: 1,634 × 3
   word     sentiment     n
   <chr>    <chr>     <int>
 1 poor     negative    193
 2 fear     negative    137
 3 dead     negative    109
 4 terrible negative     99
 5 death    negative     94
 6 strange  negative     90
 7 love     positive     84
 8 dark     negative     77
 9 ready    positive     71
10 sweet    positive     66
# … with 1,624 more rows
…
Візуалізація за словником “NRC”

sentiment_dracula_nrc <- tidy_dracula %>% 
  inner_join(nrc) %>% 
  count(word, sentiment, sort = TRUE) %>% 
  ungroup()

Joining, by = "word"

sentiment_dracula_nrc

# A tibble: 4,967 × 3
   word      sentiment        n
   <chr>     <chr>        <int>
 1 time      anticipation   390
 2 dear      positive       224
 3 friend    joy            184
 4 friend    positive       184
 5 friend    trust          184
 6 professor positive       156
 7 professor trust          156
 8 found     joy            155
 9 found     positive       155
10 found     trust          155
# … with 4,957 more rows
…
