ggplot2
…
ggplot2

Ігор Мірошниченк

2021-11-22

ПІДКЛЮЧЕННЯ ПАКЕТІВ

library(tidyverse)

ПЕРЕГЛЯД ДАТАСЕТУ

diamonds

## # A tibble: 53,940 x 10
##    carat cut       color clarity depth table price     x     y     z
##    <dbl> <ord>     <ord> <ord>   <dbl> <dbl> <int> <dbl> <dbl> <dbl>
##  1  0.23 Ideal     E     SI2      61.5    55   326  3.95  3.98  2.43
##  2  0.21 Premium   E     SI1      59.8    61   326  3.89  3.84  2.31
##  3  0.23 Good      E     VS1      56.9    65   327  4.05  4.07  2.31
##  4  0.29 Premium   I     VS2      62.4    58   334  4.2   4.23  2.63
##  5  0.31 Good      J     SI2      63.3    58   335  4.34  4.35  2.75
##  6  0.24 Very Good J     VVS2     62.8    57   336  3.94  3.96  2.48
##  7  0.24 Very Good I     VVS1     62.3    57   336  3.95  3.98  2.47
##  8  0.26 Very Good H     SI1      61.9    55   337  4.07  4.11  2.53
##  9  0.22 Fair      E     VS2      65.1    61   337  3.87  3.78  2.49
## 10  0.23 Very Good H     VS1      59.4    61   338  4     4.05  2.39
## # ... with 53,930 more rows
…
diamonds %>% 
  group_by(cut, color) %>% 
              tally() %>% 
  mutate(p = round(n / sum(n), digits = 5))

## # A tibble: 35 x 4
## # Groups:   cut [5]
##    cut   color     n      p
##    <ord> <ord> <int>  <dbl>
##  1 Fair  D       163 0.101 
##  2 Fair  E       224 0.139 
##  3 Fair  F       312 0.194 
##  4 Fair  G       314 0.195 
##  5 Fair  H       303 0.188 
##  6 Fair  I       175 0.109 
##  7 Fair  J       119 0.0739
##  8 Good  D       662 0.135 
##  9 Good  E       933 0.190 
## 10 Good  F       909 0.185 
## # ... with 25 more rows
…
